MBG4181 Biyolojik Veri Analizi ve Görüntüleme – Tidy graph analysis with {tidygraph}
…
These are the packages that will be used

library(tidytext)
library(janeaustenr)
library(widyr)
library(ggraph)

Here’s how bigram words are tokenized

austen_bigrams <- austen_books() %>%
  unnest_tokens(bigram, text, token = "ngrams", n = 2)

austen_bigrams

# A tibble: 675,025 × 2
   book                bigram         
   <fct>               <chr>          
 1 Sense & Sensibility sense and      
 2 Sense & Sensibility and sensibility
 3 Sense & Sensibility <NA>           
 4 Sense & Sensibility by jane        
 5 Sense & Sensibility jane austen    
 6 Sense & Sensibility <NA>           
 7 Sense & Sensibility <NA>           
 8 Sense & Sensibility <NA>           
 9 Sense & Sensibility <NA>           
10 Sense & Sensibility <NA>           
# ℹ 675,015 more rows

Let’s check most frequent bigrams

austen_bigrams |> count(bigram, sort=TRUE)

# A tibble: 193,210 × 2
   bigram      n
   <chr>   <int>
 1 <NA>    12242
 2 of the   2853
 3 to be    2670
 4 in the   2221
 5 it was   1691
 6 i am     1485
 7 she had  1405
 8 of her   1363
 9 to the   1315
10 she was  1309
# ℹ 193,200 more rows
…
Image source

Let’s count words in 10 line sections (considering single book)

austen_section_words <- austen_books() |>
  filter(book == "Pride & Prejudice") |>
  mutate(section = row_number() %/% 10) |>
  filter(section > 0) |>
  unnest_tokens(word, text) |>
  anti_join(stop_words)

austen_section_words

# A tibble: 37,240 × 3
   book              section word        
   <fct>               <dbl> <chr>       
 1 Pride & Prejudice       1 truth       
 2 Pride & Prejudice       1 universally 
 3 Pride & Prejudice       1 acknowledged
 4 Pride & Prejudice       1 single      
 5 Pride & Prejudice       1 possession  
 6 Pride & Prejudice       1 fortune     
 7 Pride & Prejudice       1 wife        
 8 Pride & Prejudice       1 feelings    
 9 Pride & Prejudice       1 views       
10 Pride & Prejudice       1 entering    
# ℹ 37,230 more rows

austen_section_words |>
  pairwise_count(word, section, sort = TRUE) 

# A tibble: 796,008 × 3
   item1     item2         n
   <chr>     <chr>     <dbl>
 1 darcy     elizabeth   144
 2 elizabeth darcy       144
 3 miss      elizabeth   110
 4 elizabeth miss        110
 5 elizabeth jane        106
 6 jane      elizabeth   106
 7 miss      darcy        92
 8 darcy     miss         92
 9 elizabeth bingley      91
10 bingley   elizabeth    91
# ℹ 795,998 more rows
…
For example, that \(n_{11}\) represents the number of documents where both word X and word Y appear, \(n_{00}\) the number where neither appears, and \(n_{10}\) and \(n_{01}\) the cases where one appears without the other. In terms of this table, the phi coefficient is:

\[\phi=\frac{n_{11}n_{00}-n_{10}n_{01}}{\sqrt{n_{1\cdot}n_{0\cdot}n_{\cdot0}n_{\cdot1}}}\] > The phi coefficient is equivalent to the Pearson correlation, which you may have heard of elsewhere, when it is applied to binary data).

austen_section_words |>
  group_by(word) |>
  filter(n() >= 10) |>   # removing infrequent words for simpler calculations
  ungroup() |>
  pairwise_cor(word, section, sort = TRUE)

# A tibble: 742,182 × 3
   item1     item2     correlation
   <chr>     <chr>           <dbl>
 1 bourgh    de              0.951
 2 de        bourgh          0.951
 3 pounds    thousand        0.701
 4 thousand  pounds          0.701
 5 william   sir             0.664
 6 sir       william         0.664
 7 catherine lady            0.663
 8 lady      catherine       0.663
 9 forster   colonel         0.622
10 colonel   forster         0.622
# ℹ 742,172 more rows
…
