MBG4181 Biyolojik Veri Analizi ve Görüntüleme – Tidy Text Mining with {tidytext}
…
158
8
volume

Did you notice number of rows? That’s side effect of unnesting.

What are the most common words?

tidy_book |>
    count(word, sort = TRUE)

# A tibble: 7,359 × 2
   word      n
   <chr> <int>
 1 to     5238
 2 the    5201
 3 and    4896
 4 of     4291
 5 i      3181
 6 a      3125
 7 it     2528
 8 her    2462
 9 was    2398
10 she    2340
# ℹ 7,349 more rows
…
If you have loaded {tidytext} package, a data frame called stop_words is loaded as well. However, that data frame is for English only.

glimpse(stop_words) 

Rows: 1,149
Columns: 2
$ word    <chr> "a", "a's", "able", "about", "above", "according", "accordingl…
$ lexicon <chr> "SMART", "SMART", "SMART", "SMART", "SMART", "SMART", "SMART",…

For stop words in other languages you can use {stopwords} package. It contains more sources and languages

get_stopwords(language = "tr", source = "nltk")

# A tibble: 53 × 2
   word    lexicon
   <chr>   <chr>  
 1 acaba   nltk   
 2 ama     nltk   
 3 aslında nltk   
 4 az      nltk   
 5 bazı    nltk   
 6 belki   nltk   
 7 biri    nltk   
 8 birkaç  nltk   
 9 birşey  nltk   
10 biz     nltk   
# ℹ 43 more rows
…
The three general-purpose lexicons are

AFINN from Finn Årup Nielsen,

bing from Bing Liu and collaborators, and

nrc from Saif Mohammad and Peter Turney.

tidytext provides a function get_sentiments() to get specific sentiment lexicons without the columns that are not used in that lexicon.

Sentiment lexicons

get_sentiments("afinn")

# A tibble: 2,477 × 2
   word       value
   <chr>      <dbl>
 1 abandon       -2
 2 abandoned     -2
 3 abandons      -2
 4 abducted      -2
 5 abduction     -2
 6 abductions    -2
 7 abhor         -3
 8 abhorred      -3
 9 abhorrent     -3
10 abhors        -3
# ℹ 2,467 more rows

Sentiment lexicons

get_sentiments("bing")

# A tibble: 6,786 × 2
   word        sentiment
   <chr>       <chr>    
 1 2-faces     negative 
 2 abnormal    negative 
 3 abolish     negative 
 4 abominable  negative 
 5 abominably  negative 
 6 abominate   negative 
 7 abomination negative 
 8 abort       negative 
 9 aborted     negative 
10 aborts      negative 
# ℹ 6,776 more rows

Sentiment lexicons

get_sentiments("nrc")

# A tibble: 13,872 × 2
   word        sentiment
   <chr>       <chr>    
 1 abacus      trust    
 2 abandon     fear     
 3 abandon     negative 
 4 abandon     sadness  
 5 abandoned   anger    
 6 abandoned   fear     
 7 abandoned   negative 
 8 abandoned   sadness  
 9 abandonment anger    
10 abandonment fear     
# ℹ 13,862 more rows
…
# A tibble: 2 × 2
  sentiment     n
  <chr>     <int>
1 positive   7157
2 negative   4810

Implementing sentiment analysis

tidy_book |>
    inner_join(get_sentiments("bing")) |>        
    count(sentiment, word, sort = TRUE)   

# A tibble: 1,544 × 3
   sentiment word       n
   <chr>     <chr>  <int>
 1 negative  miss     599
 2 positive  well     401
 3 positive  good     359
 4 positive  great    264
 5 positive  like     200
 6 positive  better   173
 7 negative  poor     136
 8 positive  enough   129
 9 positive  happy    125
10 positive  love     117
# ℹ 1,534 more rows
…
Sentiment across book

library(janeaustenr)

austen_books <- austen_books() |>
  group_by(book) |>
  mutate(linenumber = row_number()) |>
  ungroup()

austen_books

# A tibble: 73,422 × 3
   text                    book                linenumber
   <chr>                   <fct>                    <int>
 1 "SENSE AND SENSIBILITY" Sense & Sensibility          1
 2 ""                      Sense & Sensibility          2
 3 "by Jane Austen"        Sense & Sensibility          3
 4 ""                      Sense & Sensibility          4
 5 "(1811)"                Sense & Sensibility          5
 6 ""                      Sense & Sensibility          6
 7 ""                      Sense & Sensibility          7
 8 ""                      Sense & Sensibility          8
 9 ""                      Sense & Sensibility          9
10 "CHAPTER 1"             Sense & Sensibility         10
# ℹ 73,412 more rows

austen_sentiment <- austen_books |>
  unnest_tokens(word, text) |>
  inner_join(get_sentiments("bing")) |>
  mutate(index= linenumber %/% 80) |>
  count(book, index , sentiment) |>
  pivot_wider(names_from = sentiment, 
              values_from = n, 
              values_fill = 0) |>
  mutate(sentiment = positive - negative)

austen_sentiment

# A tibble: 920 × 5
   book                index negative positive sentiment
   <fct>               <dbl>    <int>    <int>     <int>
 1 Sense & Sensibility     0       16       32        16
 2 Sense & Sensibility     1       19       53        34
 3 Sense & Sensibility     2       12       31        19
 4 Sense & Sensibility     3       15       31        16
 5 Sense & Sensibility     4       16       34        18
 6 Sense & Sensibility     5       16       51        35
 7 Sense & Sensibility     6       24       40        16
 8 Sense & Sensibility     7       23       51        28
 9 Sense & Sensibility     8       30       40        10
10 Sense & Sensibility     9       15       19         4
# ℹ 910 more rows
…
The statistic tf-idf is intended to measure how important a word is to a document in a collection (or corpus) of documents, for example, to one novel in a collection of novels or to one website in a collection of websites.

\[idf(\text{term}) = \ln{\left(\frac{n_{\text{documents}}}{n_{\text{documents containing term}}}\right)}\]

Counting word frequencies

tidytext package has a function called bind_tf_idf() to calculate the TF-IDF. First, let’s prepare counts per book for austen_books.

austen_counts <- austen_books |>
  unnest_tokens(word, text) |>
  count(book, word, sort=TRUE)

austen_counts

# A tibble: 40,379 × 3
   book              word      n
   <fct>             <chr> <int>
 1 Mansfield Park    the    6206
 2 Mansfield Park    to     5475
 3 Mansfield Park    and    5438
 4 Emma              to     5239
 5 Emma              the    5201
 6 Emma              and    4896
 7 Mansfield Park    of     4778
 8 Pride & Prejudice the    4331
 9 Emma              of     4291
10 Pride & Prejudice to     4162
# ℹ 40,369 more rows

austen_counts |> bind_tf_idf(word, book, n)

# A tibble: 40,379 × 6
   book              word      n     tf   idf tf_idf
   <fct>             <chr> <int>  <dbl> <dbl>  <dbl>
 1 Mansfield Park    the    6206 0.0387     0      0
 2 Mansfield Park    to     5475 0.0341     0      0
 3 Mansfield Park    and    5438 0.0339     0      0
 4 Emma              to     5239 0.0325     0      0
 5 Emma              the    5201 0.0323     0      0
 6 Emma              and    4896 0.0304     0      0
 7 Mansfield Park    of     4778 0.0298     0      0
 8 Pride & Prejudice the    4331 0.0354     0      0
 9 Emma              of     4291 0.0267     0      0
10 Pride & Prejudice to     4162 0.0341     0      0
# ℹ 40,369 more rows

That was not interesting at all..

austen_counts |> 
  bind_tf_idf(word, book, n) |>
  arrange(-tf_idf)

# A tibble: 40,379 × 6
   book                word          n      tf   idf  tf_idf
   <fct>               <chr>     <int>   <dbl> <dbl>   <dbl>
 1 Sense & Sensibility elinor      623 0.00519  1.79 0.00931
 2 Sense & Sensibility marianne    492 0.00410  1.79 0.00735
 3 Mansfield Park      crawford    493 0.00307  1.79 0.00551
 4 Pride & Prejudice   darcy       373 0.00305  1.79 0.00547
 5 Persuasion          elliot      254 0.00304  1.79 0.00544
 6 Emma                emma        786 0.00488  1.10 0.00536
 7 Northanger Abbey    tilney      196 0.00252  1.79 0.00452
 8 Emma                weston      389 0.00242  1.79 0.00433
 9 Pride & Prejudice   bennet      294 0.00241  1.79 0.00431
10 Persuasion          wentworth   191 0.00228  1.79 0.00409
# ℹ 40,369 more rows
…
